# parallelization nodes percent-total-walltime avg min max schedule-bin
openmp 1 78.7 110.651 110.651 110.651 main/Evolve/CallEvol
funhpc 1 68.2 62.9269 62.9269 62.9269 main/Evolve/CallEvol
openmp 2 84.5 342.963 342.553 343.373 main/Evolve/CallEvol
funhpc 2
openmp 4 77.9 171.804 171.460 172.132 main/Evolve/CallEvol
funhpc 4 30.1 20.0623 20.0425 20.0790 main/Evolve/CallEvol
openmp 8 69.6 86.332 86.095 86.567 main/Evolve/CallEvol
funhpc 8 20.6 10.3305 10.3158 10.3529 main/Evolve/CallEvol
openmp 16 59.1 47.0782 41.8374 51.4608 main/Evolve/CallEvol
funhpc 16 14.4 5.5180 5.1937 5.8118 main/Evolve/CallEvol
openmp 32 45.4 23.7523 15.0913 26.5294 main/Evolve/CallEvol
funhpc 32 8.7 3.0031 2.7868 3.1973 main/Evolve/CallEvol
openmp 64 30.4 11.8072 7.3949 13.4528 main/Evolve/CallEvol
funhpc 64 4.8 1.6570 1.4761 1.7791 main/Evolve/CallEvol
openmp 128 18.8 6.0910 3.7672 6.9039 main/Evolve/CallEvol
funhpc 128 3.0 0.9518 0.7982 1.0233 main/Evolve/CallEvol
