# parallelization nodes   percent-total-walltime avg min max schedule-bin   percent-total-walltime avg min max schedule-bin
openmp 1 54.0 215.623 215.623 215.623 main/Evolve/CallEvol 24.0 96.013 96.013 96.013 main/Evolve/CallRestrict
funhpc 1 47.8 83.798 83.798 83.798 main/Evolve/CallEvol 17.9 31.317 31.317 31.317 main/Evolve/CallRestrict
openmp 2 48.3 412.799 412.566 413.031 main/Evolve/CallEvol 23.2 198.158 197.933 198.383 main/Evolve/CallRestrict
funhpc 2 30.0 53.523 53.515 53.532 main/Evolve/CallEvol 10.2 18.277 18.259 18.296 main/Evolve/CallRestrict
openmp 4 43.2 195.005 182.433 207.792 main/Evolve/CallEvol 19.3 87.067 74.526 99.818 main/Evolve/CallRestrict
funhpc 4 24.7 29.254 29.243 29.264 main/Evolve/CallEvol 8.2 9.668 9.654 9.680 main/Evolve/CallRestrict
openmp 8 41.3 112.311 102.241 116.637 main/Evolve/CallEvol 17.9 48.699 38.786 52.655 main/Evolve/CallRestrict
funhpc 8 19.6 15.2331 15.2218 15.2431 main/Evolve/CallEvol 6.8 5.2699 5.2549 5.2823 main/Evolve/CallRestrict
openmp 16 38.8 71.295 65.266 75.363 main/Evolve/CallEvol 17.9 32.941 27.051 36.955 main/Evolve/CallRestrict
funhpc 16 14.7 9.9588 9.0894 15.3175 main/Evolve/CallEvol 13.8 9.3506 4.0706 10.1174 main/Evolve/CallRestrict
funhpc 32 10.8 6.1414 5.7908 6.5130 main/Evolve/CallEvol 5.6 3.2053 3.1403 3.3711 main/Evolve/CallRestrict
